%YAML 1.1
%TAG !u! tag:unity3d.com,2011:
--- !u!1 &6848232523629267990
GameObject:
  m_ObjectHideFlags: 0
  m_CorrespondingSourceObject: {fileID: 0}
  m_PrefabInstance: {fileID: 0}
  m_PrefabAsset: {fileID: 0}
  serializedVersion: 6
  m_Component:
  - component: {fileID: 8009138231604944722}
  - component: {fileID: 193973939844996537}
  m_Layer: 0
  m_Name: PlayerFollower
  m_TagString: Untagged
  m_Icon: {fileID: 0}
  m_NavMeshLayer: 0
  m_StaticEditorFlags: 0
  m_IsActive: 1
--- !u!4 &8009138231604944722
Transform:
  m_ObjectHideFlags: 0
  m_CorrespondingSourceObject: {fileID: 0}
  m_PrefabInstance: {fileID: 0}
  m_PrefabAsset: {fileID: 0}
  m_GameObject: {fileID: 6848232523629267990}
  m_LocalRotation: {x: 0, y: 0, z: 0, w: 1}
  m_LocalPosition: {x: -8.600126, y: 6.1285653, z: -0.81796813}
  m_LocalScale: {x: 1, y: 1, z: 1}
  m_Children:
  - {fileID: 2824769850051152429}
  m_Father: {fileID: 0}
  m_RootOrder: 0
  m_LocalEulerAnglesHint: {x: 0, y: 0, z: 0}
--- !u!114 &193973939844996537
MonoBehaviour:
  m_ObjectHideFlags: 0
  m_CorrespondingSourceObject: {fileID: 0}
  m_PrefabInstance: {fileID: 0}
  m_PrefabAsset: {fileID: 0}
  m_GameObject: {fileID: 6848232523629267990}
  m_Enabled: 1
  m_EditorHideFlags: 0
  m_Script: {fileID: 11500000, guid: c746869959ef45848873f304a6bcb8a5, type: 3}
  m_Name: 
  m_EditorClassIdentifier: 
--- !u!1001 &8095290244203314395
PrefabInstance:
  m_ObjectHideFlags: 0
  serializedVersion: 2
  m_Modification:
    m_TransformParent: {fileID: 8009138231604944722}
    m_Modifications:
    - target: {fileID: 6299311711071778549, guid: ee18284b0f6bec74d9ea15c979a3dde4,
        type: 3}
      propertyPath: m_Name
      value: Main Camera
      objectReference: {fileID: 0}
    - target: {fileID: 6299311711071778550, guid: ee18284b0f6bec74d9ea15c979a3dde4,
        type: 3}
      propertyPath: m_RootOrder
      value: 0
      objectReference: {fileID: 0}
    - target: {fileID: 6299311711071778550, guid: ee18284b0f6bec74d9ea15c979a3dde4,
        type: 3}
      propertyPath: m_LocalPosition.x
      value: 0.08
      objectReference: {fileID: 0}
    - target: {fileID: 6299311711071778550, guid: ee18284b0f6bec74d9ea15c979a3dde4,
        type: 3}
      propertyPath: m_LocalPosition.y
      value: -0.51
      objectReference: {fileID: 0}
    - target: {fileID: 6299311711071778550, guid: ee18284b0f6bec74d9ea15c979a3dde4,
        type: 3}
      propertyPath: m_LocalPosition.z
      value: -19.230768
      objectReference: {fileID: 0}
    - target: {fileID: 6299311711071778550, guid: ee18284b0f6bec74d9ea15c979a3dde4,
        type: 3}
      propertyPath: m_LocalRotation.w
      value: 1
      objectReference: {fileID: 0}
    - target: {fileID: 6299311711071778550, guid: ee18284b0f6bec74d9ea15c979a3dde4,
        type: 3}
      propertyPath: m_LocalRotation.x
      value: -0
      objectReference: {fileID: 0}
    - target: {fileID: 6299311711071778550, guid: ee18284b0f6bec74d9ea15c979a3dde4,
        type: 3}
      propertyPath: m_LocalRotation.y
      value: -0
      objectReference: {fileID: 0}
    - target: {fileID: 6299311711071778550, guid: ee18284b0f6bec74d9ea15c979a3dde4,
        type: 3}
      propertyPath: m_LocalRotation.z
      value: -0
      objectReference: {fileID: 0}
    - target: {fileID: 6299311711071778550, guid: ee18284b0f6bec74d9ea15c979a3dde4,
        type: 3}
      propertyPath: m_LocalEulerAnglesHint.x
      value: 0
      objectReference: {fileID: 0}
    - target: {fileID: 6299311711071778550, guid: ee18284b0f6bec74d9ea15c979a3dde4,
        type: 3}
      propertyPath: m_LocalEulerAnglesHint.y
      value: 0
      objectReference: {fileID: 0}
    - target: {fileID: 6299311711071778550, guid: ee18284b0f6bec74d9ea15c979a3dde4,
        type: 3}
      propertyPath: m_LocalEulerAnglesHint.z
      value: 0
      objectReference: {fileID: 0}
    m_RemovedComponents: []
  m_SourcePrefab: {fileID: 100100000, guid: ee18284b0f6bec74d9ea15c979a3dde4, type: 3}
--- !u!4 &2824769850051152429 stripped
Transform:
  m_CorrespondingSourceObject: {fileID: 6299311711071778550, guid: ee18284b0f6bec74d9ea15c979a3dde4,
    type: 3}
  m_PrefabInstance: {fileID: 8095290244203314395}
  m_PrefabAsset: {fileID: 0}
