[api-updater (non-obsolete-error-filter)] 24/08/2021 21:03:53 : Starting C:/Program Files/Unity/Hub/Editor/2020.3.15f2/Editor/Data/Tools/ScriptUpdater/APIUpdater.NonObsoleteApiUpdaterDetector.exe
[api-updater (non-obsolete-error-filter)] 
----------------------------------
jit/startup time      : 58,0581ms
moved types parse time: 41ms
candidates parse time : 1ms
C# parse time         : 153ms
candidates check time : 39ms
console write time    : 0ms

[api-updater (non-obsolete-error-filter)] 24/08/2021 21:04:05 : Starting C:/Program Files/Unity/Hub/Editor/2020.3.15f2/Editor/Data/Tools/ScriptUpdater/APIUpdater.NonObsoleteApiUpdaterDetector.exe
[api-updater (non-obsolete-error-filter)] 
----------------------------------
jit/startup time      : 53,0118ms
moved types parse time: 40ms
candidates parse time : 1ms
C# parse time         : 149ms
candidates check time : 48ms
console write time    : 0ms

[api-updater (non-obsolete-error-filter)] 24/08/2021 21:04:07 : Starting C:/Program Files/Unity/Hub/Editor/2020.3.15f2/Editor/Data/Tools/ScriptUpdater/APIUpdater.NonObsoleteApiUpdaterDetector.exe
[api-updater (non-obsolete-error-filter)] 
----------------------------------
jit/startup time      : 51,0108ms
moved types parse time: 41ms
candidates parse time : 1ms
C# parse time         : 154ms
candidates check time : 48ms
console write time    : 0ms

[api-updater (non-obsolete-error-filter)] 24/08/2021 21:04:16 : Starting C:/Program Files/Unity/Hub/Editor/2020.3.15f2/Editor/Data/Tools/ScriptUpdater/APIUpdater.NonObsoleteApiUpdaterDetector.exe
[api-updater (non-obsolete-error-filter)] 
----------------------------------
jit/startup time      : 52,0115ms
moved types parse time: 39ms
candidates parse time : 1ms
C# parse time         : 153ms
candidates check time : 49ms
console write time    : 0ms

[api-updater (non-obsolete-error-filter)] 24/08/2021 21:04:18 : Starting C:/Program Files/Unity/Hub/Editor/2020.3.15f2/Editor/Data/Tools/ScriptUpdater/APIUpdater.NonObsoleteApiUpdaterDetector.exe
[api-updater (non-obsolete-error-filter)] 
----------------------------------
jit/startup time      : 51,0099ms
moved types parse time: 39ms
candidates parse time : 0ms
C# parse time         : 149ms
candidates check time : 50ms
console write time    : 0ms

[api-updater (non-obsolete-error-filter)] 24/08/2021 21:04:20 : Starting C:/Program Files/Unity/Hub/Editor/2020.3.15f2/Editor/Data/Tools/ScriptUpdater/APIUpdater.NonObsoleteApiUpdaterDetector.exe
[api-updater (non-obsolete-error-filter)] 
----------------------------------
jit/startup time      : 51,0116ms
moved types parse time: 41ms
candidates parse time : 1ms
C# parse time         : 153ms
candidates check time : 50ms
console write time    : 0ms

[api-updater (non-obsolete-error-filter)] 24/08/2021 21:04:34 : Starting C:/Program Files/Unity/Hub/Editor/2020.3.15f2/Editor/Data/Tools/ScriptUpdater/APIUpdater.NonObsoleteApiUpdaterDetector.exe
[api-updater (non-obsolete-error-filter)] 
----------------------------------
jit/startup time      : 56,0126ms
moved types parse time: 40ms
candidates parse time : 0ms
C# parse time         : 150ms
candidates check time : 54ms
console write time    : 0ms

[api-updater (non-obsolete-error-filter)] 24/08/2021 21:04:52 : Starting C:/Program Files/Unity/Hub/Editor/2020.3.15f2/Editor/Data/Tools/ScriptUpdater/APIUpdater.NonObsoleteApiUpdaterDetector.exe
[api-updater (non-obsolete-error-filter)] 
----------------------------------
jit/startup time      : 51,01ms
moved types parse time: 39ms
candidates parse time : 0ms
C# parse time         : 148ms
candidates check time : 49ms
console write time    : 0ms

[api-updater (non-obsolete-error-filter)] 24/08/2021 21:05:47 : Starting C:/Program Files/Unity/Hub/Editor/2020.3.15f2/Editor/Data/Tools/ScriptUpdater/APIUpdater.NonObsoleteApiUpdaterDetector.exe
[api-updater (non-obsolete-error-filter)] 
----------------------------------
jit/startup time      : 52,0124ms
moved types parse time: 39ms
candidates parse time : 1ms
C# parse time         : 154ms
candidates check time : 48ms
console write time    : 0ms

[api-updater (non-obsolete-error-filter)] 24/08/2021 21:05:53 : Starting C:/Program Files/Unity/Hub/Editor/2020.3.15f2/Editor/Data/Tools/ScriptUpdater/APIUpdater.NonObsoleteApiUpdaterDetector.exe
[api-updater (non-obsolete-error-filter)] 
----------------------------------
jit/startup time      : 51,012ms
moved types parse time: 39ms
candidates parse time : 0ms
C# parse time         : 148ms
candidates check time : 50ms
console write time    : 0ms

[api-updater (non-obsolete-error-filter)] 24/08/2021 21:05:58 : Starting C:/Program Files/Unity/Hub/Editor/2020.3.15f2/Editor/Data/Tools/ScriptUpdater/APIUpdater.NonObsoleteApiUpdaterDetector.exe
[api-updater (non-obsolete-error-filter)] 
----------------------------------
jit/startup time      : 52,0119ms
moved types parse time: 39ms
candidates parse time : 1ms
C# parse time         : 147ms
candidates check time : 48ms
console write time    : 0ms

[api-updater (non-obsolete-error-filter)] 24/08/2021 21:06:03 : Starting C:/Program Files/Unity/Hub/Editor/2020.3.15f2/Editor/Data/Tools/ScriptUpdater/APIUpdater.NonObsoleteApiUpdaterDetector.exe
[api-updater (non-obsolete-error-filter)] 
----------------------------------
jit/startup time      : 53,0105ms
moved types parse time: 39ms
candidates parse time : 1ms
C# parse time         : 152ms
candidates check time : 49ms
console write time    : 0ms

[api-updater (non-obsolete-error-filter)] 24/08/2021 21:06:06 : Starting C:/Program Files/Unity/Hub/Editor/2020.3.15f2/Editor/Data/Tools/ScriptUpdater/APIUpdater.NonObsoleteApiUpdaterDetector.exe
[api-updater (non-obsolete-error-filter)] 
----------------------------------
jit/startup time      : 51,0116ms
moved types parse time: 38ms
candidates parse time : 0ms
C# parse time         : 146ms
candidates check time : 48ms
console write time    : 0ms

[api-updater (non-obsolete-error-filter)] 24/08/2021 21:06:27 : Starting C:/Program Files/Unity/Hub/Editor/2020.3.15f2/Editor/Data/Tools/ScriptUpdater/APIUpdater.NonObsoleteApiUpdaterDetector.exe
[api-updater (non-obsolete-error-filter)] 
----------------------------------
jit/startup time      : 51,011ms
moved types parse time: 39ms
candidates parse time : 1ms
C# parse time         : 150ms
candidates check time : 45ms
console write time    : 0ms

[api-updater (non-obsolete-error-filter)] 24/08/2021 21:06:29 : Starting C:/Program Files/Unity/Hub/Editor/2020.3.15f2/Editor/Data/Tools/ScriptUpdater/APIUpdater.NonObsoleteApiUpdaterDetector.exe
[api-updater (non-obsolete-error-filter)] 
----------------------------------
jit/startup time      : 51,0127ms
moved types parse time: 40ms
candidates parse time : 0ms
C# parse time         : 154ms
candidates check time : 47ms
console write time    : 0ms

[api-updater (non-obsolete-error-filter)] 24/08/2021 21:06:33 : Starting C:/Program Files/Unity/Hub/Editor/2020.3.15f2/Editor/Data/Tools/ScriptUpdater/APIUpdater.NonObsoleteApiUpdaterDetector.exe
[api-updater (non-obsolete-error-filter)] 
----------------------------------
jit/startup time      : 52,0112ms
moved types parse time: 40ms
candidates parse time : 0ms
C# parse time         : 149ms
candidates check time : 46ms
console write time    : 0ms

[api-updater (non-obsolete-error-filter)] 24/08/2021 21:06:37 : Starting C:/Program Files/Unity/Hub/Editor/2020.3.15f2/Editor/Data/Tools/ScriptUpdater/APIUpdater.NonObsoleteApiUpdaterDetector.exe
[api-updater (non-obsolete-error-filter)] 
----------------------------------
jit/startup time      : 50,0104ms
moved types parse time: 40ms
candidates parse time : 1ms
C# parse time         : 151ms
candidates check time : 44ms
console write time    : 0ms

[api-updater (non-obsolete-error-filter)] 24/08/2021 21:06:45 : Starting C:/Program Files/Unity/Hub/Editor/2020.3.15f2/Editor/Data/Tools/ScriptUpdater/APIUpdater.NonObsoleteApiUpdaterDetector.exe
[api-updater (non-obsolete-error-filter)] 
----------------------------------
jit/startup time      : 50,0142ms
moved types parse time: 40ms
candidates parse time : 1ms
C# parse time         : 148ms
candidates check time : 45ms
console write time    : 0ms

[api-updater (non-obsolete-error-filter)] 24/08/2021 21:06:47 : Starting C:/Program Files/Unity/Hub/Editor/2020.3.15f2/Editor/Data/Tools/ScriptUpdater/APIUpdater.NonObsoleteApiUpdaterDetector.exe
[api-updater (non-obsolete-error-filter)] 
----------------------------------
jit/startup time      : 52,0116ms
moved types parse time: 39ms
candidates parse time : 0ms
C# parse time         : 151ms
candidates check time : 42ms
console write time    : 0ms

[api-updater (non-obsolete-error-filter)] 24/08/2021 21:06:51 : Starting C:/Program Files/Unity/Hub/Editor/2020.3.15f2/Editor/Data/Tools/ScriptUpdater/APIUpdater.NonObsoleteApiUpdaterDetector.exe
[api-updater (non-obsolete-error-filter)] 
----------------------------------
jit/startup time      : 52,012ms
moved types parse time: 39ms
candidates parse time : 0ms
C# parse time         : 149ms
candidates check time : 36ms
console write time    : 0ms

[api-updater (non-obsolete-error-filter)] 24/08/2021 21:06:55 : Starting C:/Program Files/Unity/Hub/Editor/2020.3.15f2/Editor/Data/Tools/ScriptUpdater/APIUpdater.NonObsoleteApiUpdaterDetector.exe
[api-updater (non-obsolete-error-filter)] 
----------------------------------
jit/startup time      : 51,0117ms
moved types parse time: 38ms
candidates parse time : 0ms
C# parse time         : 150ms
candidates check time : 36ms
console write time    : 0ms

[api-updater (non-obsolete-error-filter)] 24/08/2021 21:06:57 : Starting C:/Program Files/Unity/Hub/Editor/2020.3.15f2/Editor/Data/Tools/ScriptUpdater/APIUpdater.NonObsoleteApiUpdaterDetector.exe
[api-updater (non-obsolete-error-filter)] 
----------------------------------
jit/startup time      : 51,0121ms
moved types parse time: 39ms
candidates parse time : 0ms
C# parse time         : 148ms
candidates check time : 33ms
console write time    : 0ms

[api-updater (non-obsolete-error-filter)] 30/08/2021 15:43:26 : Starting C:/Program Files/Unity/Hub/Editor/2020.3.15f2/Editor/Data/Tools/ScriptUpdater/APIUpdater.NonObsoleteApiUpdaterDetector.exe
[api-updater (non-obsolete-error-filter)] 
----------------------------------
jit/startup time      : 155,9089ms
moved types parse time: 44ms
candidates parse time : 1ms
C# parse time         : 348ms
candidates check time : 24ms
console write time    : 0ms

[api-updater (non-obsolete-error-filter)] 30/08/2021 15:44:24 : Starting C:/Program Files/Unity/Hub/Editor/2020.3.15f2/Editor/Data/Tools/ScriptUpdater/APIUpdater.NonObsoleteApiUpdaterDetector.exe
[api-updater (non-obsolete-error-filter)] 
----------------------------------
jit/startup time      : 59,3543ms
moved types parse time: 41ms
candidates parse time : 0ms
C# parse time         : 156ms
candidates check time : 23ms
console write time    : 0ms

[api-updater (non-obsolete-error-filter)] 19/09/2021 21:43:27 : Starting C:/Program Files/Unity/Hub/Editor/2020.3.15f2/Editor/Data/Tools/ScriptUpdater/APIUpdater.NonObsoleteApiUpdaterDetector.exe
[api-updater (non-obsolete-error-filter)] 
----------------------------------
jit/startup time      : 538,8676ms
moved types parse time: 41ms
candidates parse time : 1ms
C# parse time         : 200ms
candidates check time : 36ms
console write time    : 1ms

[api-updater (non-obsolete-error-filter)] 19/09/2021 22:00:00 : Starting C:/Program Files/Unity/Hub/Editor/2020.3.15f2/Editor/Data/Tools/ScriptUpdater/APIUpdater.NonObsoleteApiUpdaterDetector.exe
[api-updater (non-obsolete-error-filter)] 
----------------------------------
jit/startup time      : 40,8905ms
moved types parse time: 67ms
candidates parse time : 1ms
C# parse time         : 210ms
candidates check time : 36ms
console write time    : 0ms

[api-updater (non-obsolete-error-filter)] 14/10/2021 21:04:30 : Starting C:/Program Files/Unity/Hub/Editor/2020.3.15f2/Editor/Data/Tools/ScriptUpdater/APIUpdater.NonObsoleteApiUpdaterDetector.exe
[api-updater (non-obsolete-error-filter)] 
----------------------------------
jit/startup time      : 542,8823ms
moved types parse time: 41ms
candidates parse time : 0ms
C# parse time         : 259ms
candidates check time : 38ms
console write time    : 1ms

[api-updater (non-obsolete-error-filter)] 14/10/2021 21:04:39 : Starting C:/Program Files/Unity/Hub/Editor/2020.3.15f2/Editor/Data/Tools/ScriptUpdater/APIUpdater.NonObsoleteApiUpdaterDetector.exe
[api-updater (non-obsolete-error-filter)] 
----------------------------------
jit/startup time      : 51,8863ms
moved types parse time: 41ms
candidates parse time : 1ms
C# parse time         : 182ms
candidates check time : 37ms
console write time    : 0ms

